// Jest Snapshot v1, https://goo.gl/fbAQLP

exports[`renders the EnhancedTable component 1`] = `
<div
  className="MuiPaper-root-4 MuiPaper-elevation2-8 MuiPaper-rounded-5 EnhancedTable-root-1"
>
  <div
    className="MuiToolbar-root-36 MuiToolbar-regular-38 MuiToolbar-gutters-37 EnhancedTableToolbar-root-31"
  >
    <div
      className="EnhancedTableToolbar-title-35"
    >
      <h6
        className="MuiTypography-root-40 MuiTypography-h6-57"
        id="tableTitle"
      >
        Chatlog
      </h6>
    </div>
    <div
      className="EnhancedTableToolbar-spacer-33"
    />
    <div
      className="EnhancedTableToolbar-actions-34"
    >
      <button
        aria-describedby={null}
        aria-label="Reload data"
        className="MuiButtonBase-root-88 MuiIconButton-root-82"
        disabled={false}
        onBlur={[Function]}
        onFocus={[Function]}
        onKeyDown={[Function]}
        onKeyUp={[Function]}
        onMouseDown={[Function]}
        onMouseLeave={[Function]}
        onMouseOver={[Function]}
        onMouseUp={[Function]}
        onTouchEnd={[Function]}
        onTouchMove={[Function]}
        onTouchStart={[Function]}
        tabIndex="0"
        title="Reload data"
        type="button"
      >
        <span
          className="MuiIconButton-label-87"
        >
          <svg
            aria-hidden="true"
            className="MuiSvgIcon-root-91"
            focusable="false"
            id="refresh"
            onClick={[Function]}
            role="presentation"
            viewBox="0 0 24 24"
          >
            <path
              d="M17.65 6.35C16.2 4.9 14.21 4 12 4c-4.42 0-7.99 3.58-7.99 8s3.57 8 7.99 8c3.73 0 6.84-2.55 7.73-6h-2.08c-.82 2.33-3.04 4-5.65 4-3.31 0-6-2.69-6-6s2.69-6 6-6c1.66 0 3.14.69 4.22 1.78L13 11h7V4l-2.35 2.35z"
            />
            <path
              d="M0 0h24v24H0z"
              fill="none"
            />
          </svg>
        </span>
        <span
          className="MuiTouchRipple-root-175"
        />
      </button>
    </div>
  </div>
  <div
    className="EnhancedTable-tableWrapper-3"
  >
    <table
      aria-labelledby="tableTitle"
      className="MuiTable-root-100 EnhancedTable-table-2"
    >
      <thead
        className="MuiTableHead-root-101"
      >
        <tr
          className="MuiTableRow-root-102 MuiTableRow-head-105"
        >
          <th
            aria-sort={null}
            className="MuiTableCell-root-107 MuiTableCell-head-108 MuiTableCell-paddingCheckbox-113"
            scope="col"
          >
            <span
              className="MuiButtonBase-root-88 MuiIconButton-root-82 MuiPrivateSwitchBase-root-121 MuiCheckbox-root-115 MuiCheckbox-colorSecondary-120"
              onBlur={[Function]}
              onFocus={[Function]}
              onKeyDown={[Function]}
              onKeyUp={[Function]}
              onMouseDown={[Function]}
              onMouseLeave={[Function]}
              onMouseUp={[Function]}
              onTouchEnd={[Function]}
              onTouchMove={[Function]}
              onTouchStart={[Function]}
              tabIndex={null}
            >
              <span
                className="MuiIconButton-label-87"
              >
                <svg
                  aria-hidden="true"
                  className="MuiSvgIcon-root-91"
                  focusable="false"
                  role="presentation"
                  viewBox="0 0 24 24"
                >
                  <path
                    d="M19 5v14H5V5h14m0-2H5c-1.1 0-2 .9-2 2v14c0 1.1.9 2 2 2h14c1.1 0 2-.9 2-2V5c0-1.1-.9-2-2-2z"
                  />
                </svg>
                <input
                  checked={false}
                  className="MuiPrivateSwitchBase-input-124"
                  data-indeterminate={false}
                  onChange={[Function]}
                  type="checkbox"
                />
              </span>
              <span
                className="MuiTouchRipple-root-175"
              />
            </span>
          </th>
          <th
            aria-sort={null}
            className="MuiTableCell-root-107 MuiTableCell-head-108"
            scope="col"
          >
            <span
              aria-describedby={null}
              className="MuiButtonBase-root-88 MuiTableSortLabel-root-125"
              onBlur={[Function]}
              onClick={[Function]}
              onFocus={[Function]}
              onKeyDown={[Function]}
              onKeyUp={[Function]}
              onMouseDown={[Function]}
              onMouseLeave={[Function]}
              onMouseOver={[Function]}
              onMouseUp={[Function]}
              onTouchEnd={[Function]}
              onTouchMove={[Function]}
              onTouchStart={[Function]}
              role="button"
              tabIndex="0"
              title="Sort"
            >
              Message Id
              <svg
                aria-hidden="true"
                className="MuiSvgIcon-root-91 MuiTableSortLabel-icon-127 MuiTableSortLabel-iconDirectionDesc-128"
                focusable="false"
                role="presentation"
                viewBox="0 0 24 24"
              >
                <path
                  d="M20 12l-1.41-1.41L13 16.17V4h-2v12.17l-5.58-5.59L4 12l8 8 8-8z"
                />
              </svg>
            </span>
          </th>
          <th
            aria-sort={null}
            className="MuiTableCell-root-107 MuiTableCell-head-108"
            scope="col"
          >
            <span
              aria-describedby={null}
              className="MuiButtonBase-root-88 MuiTableSortLabel-root-125"
              onBlur={[Function]}
              onClick={[Function]}
              onFocus={[Function]}
              onKeyDown={[Function]}
              onKeyUp={[Function]}
              onMouseDown={[Function]}
              onMouseLeave={[Function]}
              onMouseOver={[Function]}
              onMouseUp={[Function]}
              onTouchEnd={[Function]}
              onTouchMove={[Function]}
              onTouchStart={[Function]}
              role="button"
              tabIndex="0"
              title="Sort"
            >
              User Id
              <svg
                aria-hidden="true"
                className="MuiSvgIcon-root-91 MuiTableSortLabel-icon-127 MuiTableSortLabel-iconDirectionDesc-128"
                focusable="false"
                role="presentation"
                viewBox="0 0 24 24"
              >
                <path
                  d="M20 12l-1.41-1.41L13 16.17V4h-2v12.17l-5.58-5.59L4 12l8 8 8-8z"
                />
              </svg>
            </span>
          </th>
          <th
            aria-sort={null}
            className="MuiTableCell-root-107 MuiTableCell-head-108"
            scope="col"
          >
            <span
              aria-describedby={null}
              className="MuiButtonBase-root-88 MuiTableSortLabel-root-125"
              onBlur={[Function]}
              onClick={[Function]}
              onFocus={[Function]}
              onKeyDown={[Function]}
              onKeyUp={[Function]}
              onMouseDown={[Function]}
              onMouseLeave={[Function]}
              onMouseOver={[Function]}
              onMouseUp={[Function]}
              onTouchEnd={[Function]}
              onTouchMove={[Function]}
              onTouchStart={[Function]}
              role="button"
              tabIndex="0"
              title="Sort"
            >
              Full Name
              <svg
                aria-hidden="true"
                className="MuiSvgIcon-root-91 MuiTableSortLabel-icon-127 MuiTableSortLabel-iconDirectionDesc-128"
                focusable="false"
                role="presentation"
                viewBox="0 0 24 24"
              >
                <path
                  d="M20 12l-1.41-1.41L13 16.17V4h-2v12.17l-5.58-5.59L4 12l8 8 8-8z"
                />
              </svg>
            </span>
          </th>
          <th
            aria-sort={null}
            className="MuiTableCell-root-107 MuiTableCell-head-108"
            scope="col"
          >
            <span
              aria-describedby={null}
              className="MuiButtonBase-root-88 MuiTableSortLabel-root-125"
              onBlur={[Function]}
              onClick={[Function]}
              onFocus={[Function]}
              onKeyDown={[Function]}
              onKeyUp={[Function]}
              onMouseDown={[Function]}
              onMouseLeave={[Function]}
              onMouseOver={[Function]}
              onMouseUp={[Function]}
              onTouchEnd={[Function]}
              onTouchMove={[Function]}
              onTouchStart={[Function]}
              role="button"
              tabIndex="0"
              title="Sort"
            >
              Timestamp
              <svg
                aria-hidden="true"
                className="MuiSvgIcon-root-91 MuiTableSortLabel-icon-127 MuiTableSortLabel-iconDirectionDesc-128"
                focusable="false"
                role="presentation"
                viewBox="0 0 24 24"
              >
                <path
                  d="M20 12l-1.41-1.41L13 16.17V4h-2v12.17l-5.58-5.59L4 12l8 8 8-8z"
                />
              </svg>
            </span>
          </th>
          <th
            aria-sort={null}
            className="MuiTableCell-root-107 MuiTableCell-head-108"
            scope="col"
          >
            <span
              aria-describedby={null}
              className="MuiButtonBase-root-88 MuiTableSortLabel-root-125"
              onBlur={[Function]}
              onClick={[Function]}
              onFocus={[Function]}
              onKeyDown={[Function]}
              onKeyUp={[Function]}
              onMouseDown={[Function]}
              onMouseLeave={[Function]}
              onMouseOver={[Function]}
              onMouseUp={[Function]}
              onTouchEnd={[Function]}
              onTouchMove={[Function]}
              onTouchStart={[Function]}
              role="button"
              tabIndex="0"
              title="Sort"
            >
              Email
              <svg
                aria-hidden="true"
                className="MuiSvgIcon-root-91 MuiTableSortLabel-icon-127 MuiTableSortLabel-iconDirectionDesc-128"
                focusable="false"
                role="presentation"
                viewBox="0 0 24 24"
              >
                <path
                  d="M20 12l-1.41-1.41L13 16.17V4h-2v12.17l-5.58-5.59L4 12l8 8 8-8z"
                />
              </svg>
            </span>
          </th>
          <th
            aria-sort={null}
            className="MuiTableCell-root-107 MuiTableCell-head-108"
            scope="col"
          >
            <span
              aria-describedby={null}
              className="MuiButtonBase-root-88 MuiTableSortLabel-root-125"
              onBlur={[Function]}
              onClick={[Function]}
              onFocus={[Function]}
              onKeyDown={[Function]}
              onKeyUp={[Function]}
              onMouseDown={[Function]}
              onMouseLeave={[Function]}
              onMouseOver={[Function]}
              onMouseUp={[Function]}
              onTouchEnd={[Function]}
              onTouchMove={[Function]}
              onTouchStart={[Function]}
              role="button"
              tabIndex="0"
              title="Sort"
            >
              Message
              <svg
                aria-hidden="true"
                className="MuiSvgIcon-root-91 MuiTableSortLabel-icon-127 MuiTableSortLabel-iconDirectionDesc-128"
                focusable="false"
                role="presentation"
                viewBox="0 0 24 24"
              >
                <path
                  d="M20 12l-1.41-1.41L13 16.17V4h-2v12.17l-5.58-5.59L4 12l8 8 8-8z"
                />
              </svg>
            </span>
          </th>
          <th
            aria-sort={null}
            className="MuiTableCell-root-107 MuiTableCell-head-108"
            scope="col"
          >
            <span
              aria-describedby={null}
              className="MuiButtonBase-root-88 MuiTableSortLabel-root-125"
              onBlur={[Function]}
              onClick={[Function]}
              onFocus={[Function]}
              onKeyDown={[Function]}
              onKeyUp={[Function]}
              onMouseDown={[Function]}
              onMouseLeave={[Function]}
              onMouseOver={[Function]}
              onMouseUp={[Function]}
              onTouchEnd={[Function]}
              onTouchMove={[Function]}
              onTouchStart={[Function]}
              role="button"
              tabIndex="0"
              title="Sort"
            >
              Avatar
              <svg
                aria-hidden="true"
                className="MuiSvgIcon-root-91 MuiTableSortLabel-icon-127 MuiTableSortLabel-iconDirectionDesc-128"
                focusable="false"
                role="presentation"
                viewBox="0 0 24 24"
              >
                <path
                  d="M20 12l-1.41-1.41L13 16.17V4h-2v12.17l-5.58-5.59L4 12l8 8 8-8z"
                />
              </svg>
            </span>
          </th>
        </tr>
      </thead>
      <tbody
        className="MuiTableBody-root-130"
      >
        <tr
          aria-checked={false}
          className="MuiTableRow-root-102 MuiTableRow-hover-104"
          onClick={[Function]}
          role="checkbox"
          tabIndex={-1}
        >
          <td
            aria-sort={null}
            className="MuiTableCell-root-107 MuiTableCell-body-109 MuiTableCell-paddingCheckbox-113"
          >
            <span
              className="MuiButtonBase-root-88 MuiIconButton-root-82 MuiPrivateSwitchBase-root-121 MuiCheckbox-root-115 MuiCheckbox-colorSecondary-120"
              onBlur={[Function]}
              onFocus={[Function]}
              onKeyDown={[Function]}
              onKeyUp={[Function]}
              onMouseDown={[Function]}
              onMouseLeave={[Function]}
              onMouseUp={[Function]}
              onTouchEnd={[Function]}
              onTouchMove={[Function]}
              onTouchStart={[Function]}
              tabIndex={null}
            >
              <span
                className="MuiIconButton-label-87"
              >
                <svg
                  aria-hidden="true"
                  className="MuiSvgIcon-root-91"
                  focusable="false"
                  role="presentation"
                  viewBox="0 0 24 24"
                >
                  <path
                    d="M19 5v14H5V5h14m0-2H5c-1.1 0-2 .9-2 2v14c0 1.1.9 2 2 2h14c1.1 0 2-.9 2-2V5c0-1.1-.9-2-2-2z"
                  />
                </svg>
                <input
                  checked={false}
                  className="MuiPrivateSwitchBase-input-124"
                  data-indeterminate={false}
                  onChange={[Function]}
                  type="checkbox"
                />
              </span>
              <span
                className="MuiTouchRipple-root-175"
              />
            </span>
          </td>
          <td
            aria-sort={null}
            className="MuiTableCell-root-107 MuiTableCell-body-109"
          >
            22a887be-78dc-45bf-8997-b712d3de4510
          </td>
          <td
            aria-sort={null}
            className="MuiTableCell-root-107 MuiTableCell-body-109"
          >
            e837c9f5-247f-445f-bcc3-7d434348336b
          </td>
          <td
            aria-sort={null}
            className="MuiTableCell-root-107 MuiTableCell-body-109"
          >
            Martin Bradley
          </td>
          <td
            aria-sort={null}
            className="MuiTableCell-root-107 MuiTableCell-body-109"
          >
            2017-1-26
          </td>
          <td
            aria-sort={null}
            className="MuiTableCell-root-107 MuiTableCell-body-109"
          >
            mbradley0@google.it
          </td>
          <td
            aria-sort={null}
            className="MuiTableCell-root-107 MuiTableCell-body-109"
          >
            Cras in purus eu magna vulputate luctus.
          </td>
          <td
            aria-sort={null}
            className="MuiTableCell-root-107 MuiTableCell-body-109"
          >
            <div
              className="ImageAvatar-row-131"
            >
              <div
                className="MuiAvatar-root-134 ImageAvatar-avatar-132 ImageAvatar-bigAvatar-133"
              >
                <img
                  className="MuiAvatar-img-136"
                  src="http://dummyimage.com/100x100.png/5fa2dd/ffffff"
                />
              </div>
            </div>
          </td>
        </tr>
        <tr
          className="MuiTableRow-root-102"
          style={
            Object {
              "height": 441,
            }
          }
        >
          <td
            aria-sort={null}
            className="MuiTableCell-root-107 MuiTableCell-body-109"
            colSpan={6}
          />
        </tr>
      </tbody>
    </table>
  </div>
  <div
    className="MuiTablePagination-root-137"
  >
    <div
      className="MuiToolbar-root-36 MuiToolbar-regular-38 MuiToolbar-gutters-37 MuiTablePagination-toolbar-138"
    >
      <div
        className="MuiTablePagination-spacer-139"
      />
      <span
        className="MuiTypography-root-40 MuiTypography-caption-50 MuiTypography-colorInherit-69 MuiTablePagination-caption-140"
      >
        Rows per page:
      </span>
      <div
        className="MuiInputBase-root-154 MuiTablePagination-input-144"
        onClick={[Function]}
      >
        <div
          className="MuiSelect-root-147 MuiTablePagination-selectRoot-141"
        >
          <div
            aria-haspopup="true"
            aria-pressed="false"
            className="MuiSelect-select-148 MuiTablePagination-select-142 MuiSelect-selectMenu-151 MuiInputBase-input-164"
            onBlur={[Function]}
            onClick={[Function]}
            onFocus={[Function]}
            onKeyDown={[Function]}
            role="button"
            tabIndex={0}
          >
            10
          </div>
          <input
            type="hidden"
            value={10}
          />
          <svg
            aria-hidden="true"
            className="MuiSvgIcon-root-91 MuiSelect-icon-153 MuiTablePagination-selectIcon-143"
            focusable="false"
            role="presentation"
            viewBox="0 0 24 24"
          >
            <path
              d="M7 10l5 5 5-5z"
            />
          </svg>
        </div>
      </div>
      <span
        className="MuiTypography-root-40 MuiTypography-caption-50 MuiTypography-colorInherit-69 MuiTablePagination-caption-140"
      >
        1-1 of 1
      </span>
      <div
        className="MuiTablePagination-actions-146"
      >
        <button
          aria-label="Previous Page"
          className="MuiButtonBase-root-88 MuiButtonBase-disabled-89 MuiIconButton-root-82 MuiIconButton-colorInherit-83 MuiIconButton-disabled-86"
          disabled={true}
          onBlur={[Function]}
          onClick={[Function]}
          onFocus={[Function]}
          onKeyDown={[Function]}
          onKeyUp={[Function]}
          onMouseDown={[Function]}
          onMouseLeave={[Function]}
          onMouseUp={[Function]}
          onTouchEnd={[Function]}
          onTouchMove={[Function]}
          onTouchStart={[Function]}
          tabIndex="-1"
          type="button"
        >
          <span
            className="MuiIconButton-label-87"
          >
            <svg
              aria-hidden="true"
              className="MuiSvgIcon-root-91"
              focusable="false"
              role="presentation"
              viewBox="0 0 24 24"
            >
              <path
                d="M15.41 16.09l-4.58-4.59 4.58-4.59L14 5.5l-6 6 6 6z"
              />
            </svg>
          </span>
        </button>
        <button
          aria-label="Next Page"
          className="MuiButtonBase-root-88 MuiButtonBase-disabled-89 MuiIconButton-root-82 MuiIconButton-colorInherit-83 MuiIconButton-disabled-86"
          disabled={true}
          onBlur={[Function]}
          onClick={[Function]}
          onFocus={[Function]}
          onKeyDown={[Function]}
          onKeyUp={[Function]}
          onMouseDown={[Function]}
          onMouseLeave={[Function]}
          onMouseUp={[Function]}
          onTouchEnd={[Function]}
          onTouchMove={[Function]}
          onTouchStart={[Function]}
          tabIndex="-1"
          type="button"
        >
          <span
            className="MuiIconButton-label-87"
          >
            <svg
              aria-hidden="true"
              className="MuiSvgIcon-root-91"
              focusable="false"
              role="presentation"
              viewBox="0 0 24 24"
            >
              <path
                d="M8.59 16.34l4.58-4.59-4.58-4.59L10 5.75l6 6-6 6z"
              />
            </svg>
          </span>
        </button>
      </div>
    </div>
  </div>
</div>
`;
